{
  "name": "Fiscalización",
  "integrations": {
    "cordova": {}
  },
  "type": "ionic1",
  "gulpStartupTasks": [
    "sass",
    "watch"
  ],
  "pro_id": "2d37d204",
  "watchPatterns": [
    "scss/**/*",
    "www/**/*",
    "!www/lib/**/*",
    "!www/**/*.map"
  ],
  "id": "2d37d204"
}
